{
  "companies": [
    {
      "sector": "FIN",
      "stockSymbol": "JPM",
      "companyName": "JPMorgan Chase & Co.",
      "price": 77
    },
    {
      "sector": "FIN",
      "stockSymbol": "BAC",
      "companyName": "Bank of America Corporation",
      "price": 90
    },
    {
      "sector": "FIN",
      "stockSymbol": "WFC",
      "companyName": "Wells Fargo & Company",
      "price": 61
    },
    {
      "sector": "FIN",
      "stockSymbol": "HSBC",
      "companyName": "HSBC Bank plc.",
      "price": 140
    },
    {
      "sector": "TEC",
      "stockSymbol": "AAPL",
      "companyName": "Apple",
      "price": 128
    },
    {
      "sector": "TEC",
      "stockSymbol": "MSFT",
      "companyName": "Microsoft Corporation",
      "price": 150
    },
    {
      "sector": "TEC",
      "stockSymbol": "GOOG",
      "companyName": "Alphabet Inc.",
      "price": 53
    },
    {
      "sector": "TEC",
      "stockSymbol": "FB",
      "companyName": "Facebook, Inc.",
      "price": 94
    },
    {
      "sector": "CS",
      "stockSymbol": "AMZN",
      "companyName": "Amazon.com, Inc.",
      "price": 128
    },
    {
      "sector": "CS",
      "stockSymbol": "WMT",
      "companyName": "Walmart Inc.",
      "price": 145
    },
    {
      "sector": "CS",
      "stockSymbol": "HD",
      "companyName": "The Home Depot Inc.",
      "price": 94
    },
    {
      "sector": "CS",
      "stockSymbol": "NFLX",
      "companyName": "Netflix, Inc.",
      "price": 149
    },
    {
      "sector": "MAN ",
      "stockSymbol": "KO",
      "companyName": "The Coca-Cola Company",
      "price": 112
    },
    {
      "sector": "MAN ",
      "stockSymbol": "BUD",
      "companyName": "Anheuser-Busch Inbev SA",
      "price": 112
    },
    {
      "sector": "MAN ",
      "stockSymbol": "PEP",
      "companyName": "PepsiCo, Inc.",
      "price": 133
    },
    {
      "sector": "MAN ",
      "stockSymbol": "PM",
      "companyName": "Philip Morris International Inc.",
      "price": 90
    }
  ],
  "chartInfo": [
    [
      1,
      154,
      270,
      244,
      280,
      512,
      450,
      159,
      282,
      512,
      290,
      376,
      596,
      224,
      224,
      399,
      270
    ],
    [
      2,
      231,
      270,
      183,
      420,
      384,
      600,
      106,
      376,
      384,
      435,
      282,
      596,
      448,
      448,
      532,
      180
    ],
    [
      3,
      154,
      360,
      244,
      420,
      256,
      600,
      106,
      282,
      512,
      435,
      282,
      447,
      336,
      448,
      532,
      360
    ],
    [
      4,
      231,
      360,
      122,
      281,
      513,
      451,
      212,
      282,
      513,
      581,
      376,
      448,
      225,
      337,
      400,
      180
    ],
    [
      5,
      231,
      270,
      244,
      420,
      512,
      600,
      159,
      188,
      384,
      290,
      188,
      596,
      448,
      336,
      399,
      270
    ],
    [
      6,
      308,
      270,
      244,
      560,
      256,
      450,
      106,
      282,
      384,
      435,
      282,
      447,
      224,
      224,
      266,
      360
    ],
    [
      7,
      154,
      360,
      244,
      280,
      384,
      300,
      212,
      282,
      256,
      435,
      188,
      298,
      224,
      336,
      399,
      180
    ],
    [
      8,
      308,
      270,
      244,
      280,
      512,
      300,
      106,
      376,
      512,
      580,
      282,
      447,
      224,
      224,
      266,
      360
    ],
    [
      9,
      308,
      180,
      183,
      560,
      384,
      450,
      159,
      188,
      256,
      435,
      188,
      298,
      224,
      448,
      532,
      270
    ],
    [
      10,
      308,
      180,
      244,
      420,
      512,
      600,
      106,
      376,
      384,
      580,
      188,
      596,
      336,
      448,
      532,
      180
    ],
    [
      11,
      231,
      180,
      244,
      420,
      512,
      450,
      159,
      282,
      256,
      290,
      376,
      298,
      336,
      224,
      532,
      180
    ],
    [
      12,
      308,
      270,
      183,
      560,
      256,
      450,
      159,
      188,
      384,
      580,
      188,
      447,
      448,
      336,
      399,
      180
    ],
    [
      13,
      231,
      270,
      183,
      420,
      384,
      450,
      106,
      376,
      384,
      290,
      376,
      447,
      224,
      224,
      532,
      360
    ]
  ]
}